road,home,lineopen,line,linemass,linepi,linepim,linepib,linedonchess,linemidweek,linedok,lineargh,linebihl,linerwp,lineexcel,lineshark,linetalis,linepugh,lineclean,linecraig,linehanson,lineffw,lineround,linestjohn,lineespn,lineexcel2,neutral,linepfz,linesag,linesagr,linesagpred,linesaggm,linel1,linel2,linel2to,linejohnson,linecurry,lineash,linedwig,linel2h,linemoore,linepyth,linepig,lineelo,linefox,linegt,lineeff,linelog,linekerns,linecoff,lineppg,lineteamrank,linedunk,linenutshell,lineburd,linest,linegiddens,lineturing,lineesp2,linekasulis,lineavg,linemedian,linestd,phcover,phwin,lineca
Detroit,Kansas City,7,6.5,,,,,8.4,6.5,,,,,,,8.64,,,,,7,,,,,0,6.75,,,,,5.67,5.9402,7.6428,,,4,,10.4027,11.78,7.0194,,5.808029876,,5.5,5.9649258727,6.608505,,,7.9411764706,8.4,,,,,,,,,7.097102148,7,1.8383357421,0.5122440957,0.696501414,6.5
Carolina,Atlanta,-3,3.5,,,,,5.1,3.5,,,,,,,,,,,,2,,,,,0,2.51,,,,,-2.33,1.6302,1.4885,,,1,,6.463,1.96,3.3385,,-0.725197553,,4,3.174831444,-0.528135,,,2.3529411765,1.6,,,,,,,,,1.9356982191,1.98,1.8572970139,0.4679551098,0.5557744819,3.5
Houston,Baltimore,2.5,10,,,,,14.5,9.5,,,,,,,,,,,,9,,,,,0,11.18,,,,,13.67,13.5019,12.2072,,,5,,5.3963,9.4,11.1385,,9.333750888,,10,7.7760297849,10.10712,,,11.764705882,11.6,,,,,,,,,10.719434754,11.15925,2.5377219772,0.5146923118,0.7795646356,10
Cincinnati,Cleveland,7,-2.5,,,,,-0.4,-1.5,,,,,,,,,,,,-3,,,,,0,-6.155,,,,,-4.33,-5.3051,-4.9953,,,1,,-3.6142,-2.73,-2.4889,,-4.985346391,,1.5,-0.561096303,-6.83709,,,-5.176470588,-2.8,,,,,,,,,-2.887658092,-2.9,2.4628304886,0.4920780784,0.4176836268,-2.5
Jacksonville,Indianapolis,0,-5,,,,,-4.5,-4,,,,,,,,,,,,-3,,,,,0,-9.795,,,,,-7.33,-7.6673,-6.8762,,,1,,-5.0313,12.98,-6.0441,,-7.606636221,,-2.5,-2.703712579,-5.395155,,,-9.294117647,-5.1,,,,,,,,,-4.174076175,-5.57205,5.7572223398,0.5163050274,0.3892313065,-5
Tampa Bay,Minnesota,-3.5,6,,,,,4.2,6.5,,,,,,,,,,,,5,,,,,0,4.815,,,,,6.8188,5.1474,2.7741,,,2,,4.4098,-2.44,5.2615,,7.010929645,,7,4.5869718304,6.994335,,,4.4705882353,7.8,,,,,,,,,4.6032349793,4.9075,2.5945414689,0.4715039589,0.6295726939,6
Tennessee,New Orleans,-3.5,3.5,,,,,6.8,3,,,,,,,,,,,,4,,,,,0,2.51,,,,,-0.7744,2.3819,2.8842,,,2,,-0.0316,1.11,5.4857,,7.56505277,,6.5,4.4002018053,-0.29751,,,4.7058823529,3.7,,,,,,,,,3.8048954949,3.85,2.3279698812,0.5062360851,0.6080711251,3.5
San Francisco,Pittsburgh,-2.5,-2.5,,,,,-3.6,-3,,,,,,,,,,,,-3,,,,,0,-5.37,,,,,-8.7134,-5.5717,-4.608,,,0.01,,-0.6132,-4.29,-6.8488,,1.013400396,,0.01,-3.071525852,-2.237325,,,-10.41176471,-3.4,,,,,,,,,-4.132270726,-3.945,3.2305624978,0.4668696739,0.3843459243,-2.5
Arizona,Washington,-2.5,7,,,,,7.2,6,,,,,,,,,,,,5,,,,,0,3.94,,,,,6.8188,8.0883,6.7779,,,3,,2.8293,-4.23,6.6113,,8.594933342,,5,5.1602410693,8.337585,,,7.1176470588,7.2,,,,,,,,,5.4485086764,6.6946,3.2011627451,0.4684980485,0.6509722261,7
Green Bay,Chicago,9,1.5,,,,,0.7,2,,,,,,,,,,,,1,,,,,0,-6.22,,,,,-6.33,-5.5415,-5.1515,,,1,,-5.2898,-5.96,-2.872,,-7.372912071,,3,-0.815453555,-6.570105,,,-6,1.3,,,,,,,,,-2.804526116,-4.01175,3.6570597806,0.4135494095,0.4214737341,1
Las Vegas,Denver,2.5,4,,,,,4.5,4,,,,,,,,,,,,4,,,,,0,1.375,,,,,-1.7744,-0.1673,-1.8868,,,1,,2.3546,0.28,0.0989,,1.145452175,,7,1.0543882179,-0.25359,,,-0.882352941,3.1,,,,,,,,,1.3459205323,1.0271941089,2.5178840003,0.4459454138,0.5385559274,3.5
Miami,LA Chargers,0,3,,,,,2.9,3,,,,,,,,,,,,3,,,,,0,-0.65,,,,,1.1144,-1.2513,-3.5066,,,2,,-1.9397,2.68,3.4143,,4.046537085,,3,3.2548086709,-4.34094,,,2.5294117647,0.1,,,,,,,,,1.6165398229,2.6047058824,2.1762278383,0.4717009955,0.5464685438,3
Philadelphia,New England,2.5,-4,,,,,-5.4,-4.5,,,,,,,,,,,,-3,,,,,0,-4.88,,,,,-2.7367,-4.8372,-3.8492,,,1,,-6.4824,5.64,-1.7022,,-3.594736056,,-1,-0.241993144,-7.829295,,,-4.823529412,-3.2,,,,,,,,,-2.330397044,-3.1,2.9722107138,0.5339567495,0.4338709412,-4
LA Rams,Seattle,2.5,4.5,,,,,5.3,4,,,,,,,,,,,,5,,,,,0,5.14,,,,,3.2361,5.6434,4.9801,,,2,,6.7844,-3.32,7.1806,,5.233413358,,7.5,5.582751359,4.947465,,,6.8823529412,6.3,,,,,,,,,4.7613369756,5.266706679,2.74131653,0.5053305727,0.6335955254,4.5
Dallas,N.Y. Giants,1.5,-3.5,,,,,-3.6,-3,,,,,,,,,,,,-3,,,,,0,-2.77,,,,,-5.6151,-4.3625,-3.972,,,0.01,,-6.8172,-7.89,-2.6159,,-1.32111866,,-0.5,-0.62090817,-1.24782,,,-5.705882353,-2.9,,,,,,,,,-3.204529227,-2.95,2.2299955156,0.5060468844,0.4085473554,-3.5
Buffalo,N.Y. Jets,-1,-2.5,,,,,-4.6,-2,,,,,,,,,,,,-3,,,,,0,-8.325,,,,,-6.33,-4.686,-5.7997,,,0.01,,-5.4772,-11.31,-5.6774,,-2.74918476,,2,-2.350588015,-4.82433,,,-9.738970588,-0.9,,,,,,,,,-4.532631669,-4.643,3.7251024044,0.4589517649,0.3745578736,-2.5
