road,home,lineopen,line,date,week,totmass,totargh,totbihl,totexcel,totdonchess,totshark,tottalis,totpugh,totclean,totround,totpirate,linemidweek,tothanson,totffw,totexcel2,totrwp,totsag,totturing,totashby,totcurry,totcoffey,totkerns,totavg,totmed,totstd,min,max
Pittsburgh,Atlanta,38.5,38.5,23246,1,43.52,,,,43.1299,41,40.8,,,,,38.5,,,,,,,37,,,,41.08998,41,2.5926044824,37,43.52
Indianapolis,Philadelphia,38,38,23246,1,46.34,,,,,45.2,47.5,,,,,38,,,,,,,39,,,,44.51,45.77,3.7914465138,39,47.5
Detroit,Carolina,37,37,23247,1,46.91,,,,45.60104,44.1,42.6,,,,,37,,,,,,,38,,,,43.442208,44.1,3.4440444794,38,46.91
LA Chargers,San Francisco,36.5,38,23247,1,46.7,,,,45.04532,44.7,47.5,,,,,38,,,,,,,37,,,,44.189064,45.04532,4.1816255189,37,47.5
New England,Tennessee,37.5,38,23247,1,43.37,,,,,42.2,37.1,,,,,38,,,,,,,36,,,,39.6675,39.65,3.6589923476,36,43.37
Buffalo,Chicago,39,39,23248,1,46.22,,,,41.63142,45,41,,,,,39,,,,,,,38,,,,42.370284,41.63142,3.2885673177,38,46.22
Las Vegas,Dallas,38.5,38,23248,1,49.15,,,,52.88292,44.5,50.4,,,,,38,,,,,,,38,,,,46.986584,49.15,5.8745286573,38,52.88292
LA Rams,Denver,36.5,36.5,23248,1,42.34,,,,,40,29.6,,,,,36.5,,,,,,,35,,,,36.735,37.5,5.6566980946,29.6,42.34
Seattle,Green Bay,40.5,40,23248,1,47.07,,,,42.77932,44.9,55.9,,,,,40,,,,,,,38,,,,45.729864,44.9,6.6025149066,38,55.9
Miami,Jacksonville,39,41,23248,1,45.51,,,,43.93612,44.9,53.7,,,,,41,,,,,,,38,,,,45.209224,44.9,5.6096583506,38,53.7
Cleveland,Kansas City,38.5,41.5,23248,1,46.73,,,,53.83576,45,43,,,,,41.5,,,,,,,39,,,,45.513152,45,5.4714470184,39,53.83576
Arizona,Minnesota,35,38.5,23248,1,48.73,,,,48.18216,43.2,53.7,,,,,38.5,,,,,,,39,,,,46.562432,48.18216,5.6294554242,39,53.7
N.Y. Jets,N.Y. Giants,38.5,39.5,23248,1,41.46,,,,40.9306,43.5,35.8,,,,,39.5,,,,,,,36,,,,39.53812,40.9306,3.4576346933,35.8,43.5
Baltimore,Tampa Bay,36.5,36.5,23248,1,43.33,,,,46.24154,41.9,43.9,,,,,36.5,,,,,,,36,,,,42.274308,43.33,3.8406814883,36,46.24154
Cincinnati,Washington,37,37,23248,1,43.64,,,,43.83924,43,40.4,,,,,37,,,,,,,37,,,,41.575848,43,2.9040006535,37,43.83924
Houston,New Orleans,37.5,38.5,23249,1,,,,,,43.4,40,,,,,38.5,,,,,,,36,,,,39.8,40,3.7040518355,36,43.4
